<?xml version="1.0" encoding="UTF-8"?>
<svg width="58px" height="29px" viewBox="0 0 58 29" version="1.1" xmlns="http://www.w3.org/2000/svg" xmlns:xlink="http://www.w3.org/1999/xlink">
    <!-- Generator: Sketch 55.2 (78181) - https://sketchapp.com -->
    <title>List-Item__ETF_Powerbar/Rating/VeryBullish</title>
    <desc>Created with Sketch.</desc>
    <g id="List-Item__ETF_Powerbar/Rating/VeryBullish" stroke="none" stroke-width="1" fill="none" fill-rule="evenodd">
        <g id="Group-7" fill="#24A300">
            <path d="M56.8625112,21.5272933 L44.8561194,21.5272933 C42.088674,15.5196637 35.9601035,11.3422108 28.8861617,11.3422108 C19.2369142,11.3422108 11.4145656,19.114975 11.4145656,28.7030577 L1.84741111e-13,28.7030577 C1.84741111e-13,12.8506802 12.9328835,-9.23705556e-14 28.8861617,-9.23705556e-14 C42.3460665,-9.23705556e-14 53.6558252,9.14740547 56.8625112,21.5272933 Z M56.9073078,21.7025389 C57.4724567,23.9431862 57.772549,26.2882965 57.772549,28.7030577 L46.7896898,28.7030577 L56.9073078,21.7025389 Z" id="arc"></path>
            <path d="M24.207779,28.7030577 L18.4551198,28.7030577 L18.4551198,19.5340254 L24.207779,19.5340254 L24.207779,21.1270036 L20.5730822,21.1270036 L20.5730822,23.1401769 L23.95499,23.1401769 L23.95499,24.7331552 L20.5730822,24.7331552 L20.5730822,27.0975363 L24.207779,27.0975363 L24.207779,28.7030577 Z M30.1449059,28.7030577 L28.0269435,28.7030577 L28.0269435,21.1520899 L25.3145852,21.1520899 L25.3145852,19.5340254 L32.8572643,19.5340254 L32.8572643,21.1520899 L30.1449059,21.1520899 L30.1449059,28.7030577 Z M36.4782968,28.7030577 L34.394495,28.7030577 L34.394495,19.5340254 L40.1198257,19.5340254 L40.1198257,21.1270036 L36.4782968,21.1270036 L36.4782968,23.4913847 L39.8670366,23.4913847 L39.8670366,25.0780914 L36.4782968,25.0780914 L36.4782968,28.7030577 Z" id="ETF"></path>
        </g>
    </g>
</svg>