<?xml version="1.0" encoding="UTF-8"?>
<svg width="58px" height="29px" viewBox="0 0 58 29" version="1.1" xmlns="http://www.w3.org/2000/svg" xmlns:xlink="http://www.w3.org/1999/xlink">
    <!-- Generator: Sketch 55.2 (78181) - https://sketchapp.com -->
    <title>List-Item__ETF_Powerbar/Rating/None</title>
    <desc>Created with Sketch.</desc>
    <g id="List-Item__ETF_Powerbar/Rating/None" stroke="none" stroke-width="1" fill="none" fill-rule="evenodd">
        <g id="Group" fill="#949494">
            <path d="M0,29 L11.4595048,29 C11.4595048,19.3127255 19.3126501,11.4595496 28.9998868,11.4595496 C38.6871235,11.4595496 46.6084329,19.3127255 46.6084329,29 L58,29 C58,12.9836246 45.0161996,0 28.9998868,0 C12.9838004,0 0,12.9836246 0,29 Z" id="arc"></path>
            <path d="M24.1042952,29 L18.56,29 L18.56,20.3 L24.1042952,20.3 L24.1042952,21.8114911 L20.6012488,21.8114911 L20.6012488,23.7216826 L23.8606623,23.7216826 L23.8606623,25.2331737 L20.6012488,25.2331737 L20.6012488,27.4766074 L24.1042952,27.4766074 L24.1042952,29 Z M29.8263765,29 L27.7851277,29 L27.7851277,21.8352941 L25.1710123,21.8352941 L25.1710123,20.3 L32.440492,20.3 L32.440492,21.8352941 L29.8263765,21.8352941 L29.8263765,29 Z M35.930369,29 L33.9220435,29 L33.9220435,20.3 L39.44,20.3 L39.44,21.8114911 L35.930369,21.8114911 L35.930369,24.0549248 L39.1963671,24.0549248 L39.1963671,25.5604651 L35.930369,25.5604651 L35.930369,29 Z" id="ETF"></path>
        </g>
    </g>
</svg>