<?xml version="1.0" encoding="UTF-8"?>
<svg width="180px" height="96px" viewBox="0 0 180 96" version="1.1" xmlns="http://www.w3.org/2000/svg" xmlns:xlink="http://www.w3.org/1999/xlink">
    <!-- Generator: Sketch 54.1 (76490) - https://sketchapp.com -->
    <title>ico__PGR-S--Max__Neut-plus</title>
    <desc>Created with Sketch.</desc>
    <defs>
        <linearGradient x1="100%" y1="99.9999642%" x2="0%" y2="99.9999642%" id="linearGradient-1">
            <stop stop-color="#459800" offset="0%"></stop>
            <stop stop-color="#5ED000" offset="26.1753974%"></stop>
            <stop stop-color="#FFBE00" offset="50.5422477%"></stop>
            <stop stop-color="#EE5700" offset="73.4575572%"></stop>
            <stop stop-color="#E00000" offset="100%"></stop>
        </linearGradient>
    </defs>
    <g id="ico__PGR-S--Max__Neut-plus" stroke="none" stroke-width="1" fill="none" fill-rule="evenodd">
        <g id="GAUGE" transform="translate(26.000000, 2.000000)">
            <path d="M102.026602,62 L97.0136937,62 C95.5149349,44.4989396 82.0344707,30.8034473 63.9997763,30.8034473 C45.9650818,30.8034473 32.6041803,44.4989396 31.1192494,62 L25.8199613,62 C26.5529026,45.1022984 38.6146267,30.7171408 55.151385,26.8148014 L56.0312531,26.6071704 L64.0313431,3.41880097 L71.9536831,26.6052445 L72.8362271,26.8138089 C89.3192477,30.7091202 101.299641,45.0792276 102.026602,61.9999925 Z" id="Combined-Shape" fill="#001E3B"></path>
            <path d="M98.9006627,41.5912148 C100.572304,42.1298916 102.355199,42.4210526 104.205452,42.4210526 C111.117747,42.4210526 117.090074,38.3568932 119.833093,32.5047737 C124.78298,41.2628253 127.708602,51.3035502 127.979371,62 L105.311443,62 C105.017191,54.5567088 102.718433,47.5637547 98.9006627,41.5912148 Z M87.5987477,29.8680886 C83.6870463,27.1605644 79.2667526,25.1012483 74.4815698,23.8588803 L66.3437773,0.0418683732 C77.7830439,0.451253034 88.4570236,3.84558458 97.6014697,9.465029 C91.3667534,12.0452818 86.974359,18.165107 86.974359,25.2891521 C86.974359,26.8745133 87.1918542,28.4101371 87.5987477,29.8680886 Z M0.0206289028,62 C0.872112655,28.3629437 27.977669,1.21052717 61.7274918,0.03937351 L53.5097701,23.8585515 C35.9604249,28.4051278 23.2576168,43.8811147 22.5350654,62 L0.0206289028,62 Z" id="Path" fill="url(#linearGradient-1)"></path>
            <path d="M104.205452,11.4210526 C111.896344,11.4210526 118.153846,17.6425326 118.153846,25.2891521 C118.153846,32.9364147 111.896344,39.1578947 104.205452,39.1578947 C96.5139121,39.1578947 90.2564103,32.9364147 90.2564103,25.2891521 C90.2564103,17.6425326 96.5139121,11.4210526 104.205452,11.4210526 Z M105.951265,27.0255586 L114.245657,27.0255586 L114.245657,23.5533888 L105.951265,23.5533888 L105.951265,15.3067444 L102.458992,15.3067444 L102.458992,23.5533888 L94.1645998,23.5533888 L94.1645998,27.0255586 L102.458992,27.0255586 L102.458992,35.272203 L105.951265,35.272203 L105.951265,27.0255586 Z" id="Fill-6" fill="#24A300" fill-rule="nonzero"></path>
        </g>
        <path d="M39.2562078,91.7311828 L33.7103744,91.7311828 L24.758217,76.8655914 L24.6315356,76.8655914 C24.8098289,79.4910526 24.8989742,81.3637937 24.8989742,82.483871 L24.8989742,91.7311828 L21,91.7311828 L21,72.0806452 L26.5036062,72.0806452 L35.4416879,86.7983871 L35.5402179,86.7983871 C35.39946,84.2446109 35.3290822,82.4390734 35.3290822,81.3817204 L35.3290822,72.0806452 L39.2562078,72.0806452 L39.2562078,91.7311828 Z M54.686324,91.7311828 L42.8345684,91.7311828 L42.8345684,72.0806452 L54.686324,72.0806452 L54.686324,75.4946237 L47.1980414,75.4946237 L47.1980414,79.8091398 L54.1655224,79.8091398 L54.1655224,83.2231183 L47.1980414,83.2231183 L47.1980414,88.2903226 L54.686324,88.2903226 L54.686324,91.7311828 Z M74.1280202,72.0806452 L74.1280202,84.7956989 C74.1280202,86.2473191 73.7878604,87.5197078 73.1075305,88.6129032 C72.4272007,89.7060987 71.4442561,90.5439039 70.1586674,91.1263441 C68.8730786,91.7087843 67.3529161,92 65.5981343,92 C62.9518859,92 60.8968514,91.352605 59.4329693,90.0577957 C57.9690872,88.7629864 57.2371571,86.9910507 57.2371571,84.7419355 L57.2371571,72.0806452 L61.5865544,72.0806452 L61.5865544,84.1102151 C61.5865544,85.6245595 61.9056008,86.7356595 62.5437033,87.4435484 C63.1818057,88.1514372 64.2374741,88.5053763 65.7107401,88.5053763 C67.1370868,88.5053763 68.1716418,88.1491971 68.8144362,87.436828 C69.4572306,86.7244588 69.7786229,85.6066384 69.7786229,84.0833333 L69.7786229,72.0806452 L74.1280202,72.0806452 Z M109.743608,90.8484236 L116.681734,72 L122.016432,72 L129.307655,91.7311828 L124.606364,91.7311828 L123.114338,87.0537634 L115.61198,87.0537634 L114.119953,91.7311828 L110.379566,91.7311828 L105.537518,91.7311828 L100.625092,84.1908602 L98.3025987,84.1908602 L98.3025987,91.7311828 L93.9391257,91.7311828 L93.9391257,72.0806452 L99.9353821,72.0806452 C102.731772,72.0806452 104.800882,72.5667514 106.142774,73.5389785 C107.484666,74.5112056 108.155602,75.9874453 108.155602,77.9677419 C108.155602,79.1236617 107.82248,80.1518772 107.156226,81.0524194 C106.489972,81.9529615 105.546908,82.6585996 104.327006,83.1693548 C106.847438,86.7648963 108.652961,89.3245705 109.743608,90.8484236 Z M86.1449308,91.7311828 L81.7814579,91.7311828 L81.7814579,75.5483871 L76.1933973,75.5483871 L76.1933973,72.0806452 L91.7329913,72.0806452 L91.7329913,75.5483871 L86.1449308,75.5483871 L86.1449308,91.7311828 Z M98.3025987,80.8037634 L99.7101706,80.8037634 C101.089598,80.8037634 102.107731,80.5842316 102.764602,80.1451613 C103.421472,79.706091 103.749902,79.0161337 103.749902,78.0752688 C103.749902,77.1433645 103.414434,76.4802887 102.743488,76.0860215 C102.072542,75.6917543 101.033295,75.4946237 99.6257163,75.4946237 L98.3025987,75.4946237 L98.3025987,80.8037634 Z M122.072735,83.5591398 C120.693307,79.3207673 119.916805,76.9238379 119.743203,76.3682796 C119.569602,75.8127212 119.445268,75.3736575 119.370197,75.0510753 C119.060529,76.1980344 118.173768,79.0340276 116.709886,83.5591398 L122.072735,83.5591398 Z M130.936684,91.7311828 L130.936684,72.0806452 L135.300157,72.0806452 L135.300157,88.2903226 L143.647059,88.2903226 L143.647059,91.7311828 L130.936684,91.7311828 Z M151.267727,82.5774648 L145.691176,82.5774648 L145.691176,79.4929577 L151.267727,79.4929577 L151.267727,74 L154.423449,74 L154.423449,79.4929577 L160,79.4929577 L160,82.5774648 L154.423449,82.5774648 L154.423449,88 L151.267727,88 L151.267727,82.5774648 Z" id="label" fill="#001E3B"></path>
    </g>
</svg>