<?xml version="1.0" encoding="UTF-8"?>
<svg width="60px" height="40px" viewBox="0 0 60 40" version="1.1" xmlns="http://www.w3.org/2000/svg" xmlns:xlink="http://www.w3.org/1999/xlink">
    <!-- Generator: Sketch 51.2 (57519) - http://www.bohemiancoding.com/sketch -->
    <title>ico__PGR-E--LG__VeryBullish--light</title>
    <desc>Created with Sketch.</desc>
    <defs></defs>
    <g id="ico__PGR-E--LG__VeryBullish--light" stroke="none" stroke-width="1" fill="none" fill-rule="evenodd">
        <path d="M53.2439001,20 L43.2684565,20 C40.9691399,14.9767334 35.8772514,11.4837652 29.9999063,11.4837652 C21.9828828,11.4837652 15.4837281,17.9829452 15.4837281,26 L6,26 C6,12.7450686 16.7452141,2 29.9999063,2 C41.1829931,2 50.579643,9.64858343 53.2439001,20 Z M53.2811192,20.1465313 C53.75067,22.0200437 54,23.9809027 54,26 L44.8749527,26 L53.2811192,20.1465313 Z" id="arc" fill="#24A300"></path>
        <path d="M25.7795648,26 L21,26 L21,18.5 L25.7795648,18.5 L25.7795648,19.8030096 L22.7596973,19.8030096 L22.7596973,21.4497264 L25.5695364,21.4497264 L25.5695364,22.752736 L22.7596973,22.752736 L22.7596973,24.6867305 L25.7795648,24.6867305 L25.7795648,26 Z M30.7123936,26 L28.9526963,26 L28.9526963,19.8235294 L26.6991485,19.8235294 L26.6991485,18.5 L32.9659413,18.5 L32.9659413,19.8235294 L30.7123936,19.8235294 L30.7123936,26 Z M35.974456,26 L34.243141,26 L34.243141,18.5 L39,18.5 L39,19.8030096 L35.974456,19.8030096 L35.974456,21.7370041 L38.7899716,21.7370041 L38.7899716,23.0348837 L35.974456,23.0348837 L35.974456,26 Z" id="ETF" fill="#24A300"></path>
        <path d="M4.82540686,30.0978044 L6.30905356,30.0978044 L3.95323116,36.906853 L2.35108232,36.906853 L0,30.0978044 L1.48364671,30.0978044 L2.78717017,34.1497006 C2.85985184,34.3887792 2.93490244,34.6674413 3.01232422,34.9856953 C3.089746,35.3039493 3.13793639,35.5251713 3.15689682,35.6493679 C3.19165762,35.3637156 3.31015857,34.8638315 3.51240322,34.1497006 L4.82540686,30.0978044 Z M10.5656502,36.906853 L6.57449834,36.906853 L6.57449834,30.0978044 L10.5656502,30.0978044 L10.5656502,31.2807718 L8.04392479,31.2807718 L8.04392479,32.7757818 L10.390267,32.7757818 L10.390267,33.9587492 L8.04392479,33.9587492 L8.04392479,35.7145709 L10.5656502,35.7145709 L10.5656502,36.906853 Z M12.8740717,33.1204258 L13.3480803,33.1204258 C13.8126109,33.1204258 14.1554737,33.0443565 14.3766788,32.8922156 C14.5978839,32.7400746 14.7084848,32.5009996 14.7084848,32.1749834 C14.7084848,31.852072 14.5955138,31.6223116 14.3695687,31.4856953 C14.1436235,31.3490789 13.7936507,31.2807718 13.3196398,31.2807718 L12.8740717,31.2807718 L12.8740717,33.1204258 Z M12.8740717,34.2940785 L12.8740717,36.906853 L11.4046453,36.906853 L11.4046453,30.0978044 L13.4239216,30.0978044 C14.3656233,30.0978044 15.0624089,30.2662436 15.5142993,30.6031271 C15.9661897,30.9400106 16.1921315,31.4515379 16.1921315,32.1377246 C16.1921315,32.5382588 16.0799506,32.8945427 15.8555854,33.2065868 C15.6312202,33.518631 15.3136377,33.7631395 14.9028283,33.9401198 C15.9456522,35.4708438 16.6250577,36.4597449 16.9410649,36.906853 L15.3104756,36.906853 L13.6561858,34.2940785 L12.8740717,34.2940785 Z M19.1089145,32.9015303 L20.5546405,30.0978044 L22.137829,30.0978044 L19.8388877,34.2568197 L19.8388877,36.906853 L18.3789414,36.906853 L18.3789414,34.3033932 L16.08,30.0978044 L17.6726687,30.0978044 L19.1089145,32.9015303 Z M24.5726023,30.0978044 L26.7787647,30.0978044 C27.7840686,30.0978044 28.5137919,30.2351949 28.9679566,30.50998 C29.4221212,30.7847652 29.6492001,31.2217757 29.6492001,31.8210246 C29.6492001,32.2277687 29.5498026,32.5615423 29.3510045,32.8223553 C29.1522065,33.0831683 28.8879545,33.2399643 28.5582407,33.2927478 L28.5582407,33.3393214 C29.0075566,33.4355738 29.3316087,33.6156563 29.5304067,33.8795742 C29.7292048,34.1434921 29.8286023,34.4943425 29.8286023,34.9321357 C29.8286023,35.5531191 29.5950585,36.0374789 29.1279639,36.3852295 C28.6608693,36.7329802 28.026503,36.906853 27.2248458,36.906853 L24.5726023,36.906853 L24.5726023,30.0978044 Z M26.0420288,32.7944112 L26.9493319,32.7944112 C27.3727421,32.7944112 27.6793739,32.7338662 27.8692364,32.6127745 C28.0590989,32.4916827 28.1540288,32.2914186 28.1540288,32.011976 C28.1540288,31.751163 28.050698,31.5640946 27.8440335,31.4507651 C27.637369,31.3374357 27.3105751,31.2807718 26.8636421,31.2807718 L26.0420288,31.2807718 L26.0420288,32.7944112 Z M26.0420288,33.9401198 L26.0420288,35.7145709 L27.055604,35.7145709 C27.4837831,35.7145709 27.799895,35.6385015 28.0039491,35.4863606 C28.2080032,35.3342197 28.3100288,35.1013544 28.3100288,34.7877578 C28.3100288,34.222663 27.8751658,33.9401198 27.005427,33.9401198 L26.0420288,33.9401198 Z M36.2521024,30.0978044 L36.2521024,34.5036593 C36.2521024,35.0066559 36.1375515,35.4475475 35.9084462,35.8263473 C35.6793409,36.2051472 35.3483283,36.4954525 34.9153983,36.6972721 C34.4824684,36.8990917 33.9705443,37 33.3796107,37 C32.4884702,37 31.7964246,36.7756731 31.3034533,36.3270126 C30.810482,35.8783522 30.564,35.2643641 30.564,34.4850299 L30.564,30.0978044 L32.0286864,30.0978044 L32.0286864,34.2661344 C32.0286864,34.7908653 32.1361272,35.1758693 32.3510122,35.4211577 C32.5658971,35.6664461 32.9214,35.7890885 33.4175314,35.7890885 C33.8978624,35.7890885 34.2462552,35.6656699 34.4627202,35.418829 C34.6791852,35.1719881 34.787416,34.7846556 34.787416,34.2568197 L34.787416,30.0978044 L36.2521024,30.0978044 Z M37.2191499,36.906853 L37.2191499,30.0978044 L38.6885764,30.0978044 L38.6885764,35.7145709 L41.499447,35.7145709 L41.499447,36.906853 L37.2191499,36.906853 Z M42.0966977,36.906853 L42.0966977,30.0978044 L43.5661242,30.0978044 L43.5661242,35.7145709 L46.3769948,35.7145709 L46.3769948,36.906853 L42.0966977,36.906853 Z M46.9742455,36.906853 L46.9742455,30.0978044 L48.443672,30.0978044 L48.443672,36.906853 L46.9742455,36.906853 Z M53.6719861,35.0159681 C53.6719861,35.6307416 53.4468343,36.1151014 52.9965239,36.4690619 C52.5462136,36.8230224 51.9197386,37 51.1170801,37 C50.3776231,37 49.7234979,36.8633857 49.1546848,36.590153 L49.1546848,35.2488357 C49.6223755,35.4537602 50.0181687,35.5981366 50.3420762,35.6819694 C50.6659836,35.7658021 50.962236,35.8077179 51.2308422,35.8077179 C51.5531696,35.8077179 51.8004415,35.7471729 51.9726655,35.6260812 C52.1448895,35.5049894 52.2310002,35.3249069 52.2310002,35.0858283 C52.2310002,34.9523169 52.1930799,34.8335556 52.1172381,34.7295409 C52.0413964,34.6255262 51.9300055,34.5253941 51.7830621,34.4291417 C51.6361187,34.3328893 51.3367063,34.1791982 50.8848159,33.9680639 C50.4613662,33.7724541 50.1437836,33.5846095 49.9320588,33.4045243 C49.7203339,33.2244391 49.5512726,33.0148604 49.4248696,32.7757818 C49.2984667,32.5367032 49.2352662,32.2572649 49.2352662,31.9374584 C49.2352662,31.3351046 49.4430379,30.8616118 49.8585875,30.5169661 C50.274137,30.1723203 50.8484716,30 51.5816085,30 C51.9418568,30 52.2855095,30.0419157 52.612577,30.1257485 C52.9396445,30.2095813 53.2817173,30.3275663 53.6388055,30.4797073 L53.164797,31.6021291 C52.7950685,31.4530931 52.489336,31.3490799 52.2475905,31.2900865 C52.0058449,31.2310931 51.768053,31.2015968 51.5342076,31.2015968 C51.2561212,31.2015968 51.0428195,31.2652466 50.8942961,31.3925482 C50.7457727,31.5198498 50.6715121,31.6859604 50.6715121,31.8908849 C50.6715121,32.0181865 50.7015323,32.1291856 50.7615737,32.2238856 C50.8216151,32.3185855 50.9172059,32.4101792 51.0483489,32.4986693 C51.1794919,32.5871595 51.4899644,32.7462841 51.9797756,32.9760479 C52.6275905,33.2803298 53.0715741,33.5853833 53.3117396,33.8912176 C53.5519051,34.1970519 53.6719861,34.571965 53.6719861,35.0159681 Z M60,36.906853 L58.5353136,36.906853 L58.5353136,33.9680639 L55.7908042,33.9680639 L55.7908042,36.906853 L54.3213778,36.906853 L54.3213778,30.0978044 L55.7908042,30.0978044 L55.7908042,32.7664671 L58.5353136,32.7664671 L58.5353136,30.0978044 L60,30.0978044 L60,36.906853 Z" id="label" fill="#4A4A4A"></path>
    </g>
</svg>