<?xml version="1.0" encoding="UTF-8"?>
<svg width="180px" height="96px" viewBox="0 0 180 96" version="1.1" xmlns="http://www.w3.org/2000/svg" xmlns:xlink="http://www.w3.org/1999/xlink">
    <!-- Generator: Sketch 55.2 (78181) - https://sketchapp.com -->
    <title>ico__PGR-E--Max__Bullish</title>
    <desc>Created with Sketch.</desc>
    <defs>
        <linearGradient x1="100%" y1="99.9999642%" x2="0%" y2="99.9999642%" id="linearGradient-1">
            <stop stop-color="#459800" offset="0%"></stop>
            <stop stop-color="#5ED000" offset="26.1753974%"></stop>
            <stop stop-color="#FFBE00" offset="50.5422477%"></stop>
            <stop stop-color="#EE5700" offset="73.4575572%"></stop>
            <stop stop-color="#E00000" offset="100%"></stop>
        </linearGradient>
    </defs>
    <g id="ico__PGR-E--Max__Bullish" stroke="none" stroke-width="1" fill="none" fill-rule="evenodd">
        <g id="GAUGE" transform="translate(25.000000, 2.000000)">
            <path d="M102.123177,16.0036023 L93.2657903,38.2048035 L93.9127872,38.9590642 C99.4332674,45.3947701 102.664187,53.4471418 103.030971,62.0119149 L97.871483,62.0119149 C96.3747738,44.412756 82.9127452,30.6404966 64.9027144,30.6404966 C46.8926837,30.6404966 33.5500542,44.412756 32.067154,62.0119149 L26.928084,62.0119149 C27.786315,41.7562148 44.4598971,25.5981289 64.9026819,25.5981289 C70.2549314,25.5981289 75.4585451,26.7054049 80.2616215,28.8210819 L81.0712085,29.1776918 L101.77506,15.7343665 C101.891408,15.8237244 102.00745,15.9134725 102.123177,16.0036023 Z" id="Combined-Shape" fill="#001E3B"></path>
            <path d="M64.9793286,0 C78.5579458,0 91.4883302,4.20739101 102.261997,11.883302 L80.8751998,25.6638372 C75.8765045,23.6052888 70.4983017,22.530357 64.9793286,22.530357 C42.6753242,22.530357 24.4925223,40.06215 23.6301462,62.0119149 L0.941732283,62.0119149 C1.81304264,27.616501 30.1501513,0 64.9793286,0 Z M97.1913331,37.7193879 L106.316434,15.0221334 C120.190385,26.6714287 128.549247,43.6310229 129.017323,62.0119149 L106.48257,62.0119149 C106.126117,53.0392582 102.837535,44.5761304 97.1913331,37.7193879 Z" id="Combined-Shape" fill="url(#linearGradient-1)" fill-rule="nonzero"></path>
            <path d="M57.7625355,62 L49,62 L49,48 L57.7625355,48 L57.7625355,50.4322845 L52.2261116,50.4322845 L52.2261116,53.506156 L57.3774834,53.506156 L57.3774834,55.9384405 L52.2261116,55.9384405 L52.2261116,59.5485636 L57.7625355,59.5485636 L57.7625355,62 Z M66.8060549,62 L63.5799432,62 L63.5799432,50.4705882 L59.448439,50.4705882 L59.448439,48 L70.9375591,48 L70.9375591,50.4705882 L66.8060549,50.4705882 L66.8060549,62 Z M76.4531693,62 L73.2790918,62 L73.2790918,48 L82,48 L82,50.4322845 L76.4531693,50.4322845 L76.4531693,54.0424077 L81.614948,54.0424077 L81.614948,56.4651163 L76.4531693,56.4651163 L76.4531693,62 Z" id="ETF" fill="#001E3B"></path>
        </g>
        <path d="M26.023622,70.7652797 L33.20627,70.7652797 C36.4792585,70.7652797 38.8550336,71.2078692 40.3336667,72.0930615 C41.8122998,72.9782539 42.5516053,74.3860387 42.5516053,76.3164581 C42.5516053,77.6267429 42.2279947,78.7019604 41.5807638,79.5421429 C40.933533,80.3823255 40.0732024,80.8874277 38.9997464,81.0574646 L38.9997464,81.2074965 C40.4625934,81.5175639 41.5176164,82.0976812 42.1648473,82.947866 C42.8120781,83.7980507 43.1356887,84.9282794 43.1356887,86.3385858 C43.1356887,88.3390205 42.3753354,89.8993361 40.854606,91.0195796 C39.3338766,92.139823 37.2685571,92.6999363 34.6585856,92.6999363 L26.023622,92.6999363 L26.023622,70.7652797 Z M30.9172942,79.4521238 L33.7587813,79.4521238 C35.0848153,79.4521238 36.0451231,79.2570844 36.6397335,78.8669996 C37.234344,78.4769149 37.5316447,77.8317843 37.5316447,76.9315887 C37.5316447,76.0914062 37.2080342,75.4887843 36.5608033,75.1237049 C35.9135725,74.7586256 34.8901212,74.5760887 33.4904187,74.5760887 L30.9172942,74.5760887 L30.9172942,79.4521238 Z M30.9172942,83.1429074 L30.9172942,88.8591209 L34.1060742,88.8591209 C35.4531563,88.8591209 36.4476668,88.6140713 37.0896356,88.1239648 C37.7316045,87.6338583 38.052584,86.8837066 38.052584,85.8734871 C38.052584,84.0530915 36.6844743,83.1429074 33.9482138,83.1429074 L30.9172942,83.1429074 Z M65.5199521,70.7652797 L65.5199521,84.9582928 C65.5199521,86.5786449 65.13846,87.9989322 64.3754643,89.2191973 C63.6124686,90.4394625 62.5100879,91.3746517 61.068289,92.024793 C59.6264902,92.6749342 57.921615,93 55.9536123,93 C52.9858221,93 50.6810834,92.2773538 49.0393271,90.8320398 C47.3975708,89.3867257 46.5767049,87.4088256 46.5767049,84.89828 L46.5767049,70.7652797 L51.4545911,70.7652797 L51.4545911,84.1931303 C51.4545911,85.8834976 51.8124044,87.1237485 52.5280418,87.9139202 C53.2436791,88.7040919 54.4276202,89.0991719 56.0799006,89.0991719 C57.6795606,89.0991719 58.8398229,88.7015914 59.5607223,87.9064187 C60.2816217,87.1112459 60.642066,85.8634934 60.642066,84.163124 L60.642066,70.7652797 L65.5199521,70.7652797 Z M70.1490553,92.6999363 L70.1490553,70.7652797 L75.0427275,70.7652797 L75.0427275,88.8591209 L84.4038488,88.8591209 L84.4038488,92.6999363 L70.1490553,92.6999363 Z M88.4135028,92.6999363 L88.4135028,70.7652797 L93.307175,70.7652797 L93.307175,88.8591209 L102.668296,88.8591209 L102.668296,92.6999363 L88.4135028,92.6999363 Z M106.67795,92.6999363 L106.67795,70.7652797 L111.571623,70.7652797 L111.571623,92.6999363 L106.67795,92.6999363 Z M131.004237,86.6086431 C131.004237,88.5890735 130.254408,90.1493891 128.754726,91.2896369 C127.255045,92.4298847 125.168678,93 122.495562,93 C120.032927,93 117.854476,92.559911 115.960141,91.6797197 L115.960141,87.3588024 C117.517705,88.0189458 118.835826,88.4840399 119.914544,88.7540986 C120.993262,89.0241573 121.97988,89.1591846 122.874427,89.1591846 C123.947883,89.1591846 124.77138,88.9641452 125.344942,88.5740604 C125.918504,88.1839756 126.205281,87.6038583 126.205281,86.8336909 C126.205281,86.4035975 126.078994,86.0210201 125.826416,85.6859473 C125.573838,85.3508744 125.20287,85.0283092 124.7135,84.7182418 C124.224131,84.4081744 123.226989,83.9130743 121.722046,83.2329265 C120.311819,82.6027896 119.254165,81.9976671 118.549052,81.4175411 C117.843939,80.837415 117.280909,80.1622785 116.859946,79.3921111 C116.438983,78.6219437 116.228504,77.7217616 116.228504,76.6915378 C116.228504,74.7511161 116.920452,73.2258076 118.304368,72.1155663 C119.688285,71.0053251 121.601007,70.4502128 124.042594,70.4502128 C125.242339,70.4502128 126.386815,70.5852401 127.476057,70.8552988 C128.565299,71.1253574 129.704514,71.5054343 130.893735,71.9955408 L129.315131,75.6113084 C128.083814,75.1312041 127.065624,74.7961363 126.260532,74.606095 C125.45544,74.4160537 124.663515,74.3210345 123.884733,74.3210345 C122.958614,74.3210345 122.24825,74.526076 121.753618,74.9361651 C121.258986,75.3462542 121.011674,75.8813625 121.011674,76.5415059 C121.011674,76.951595 121.111651,77.3091674 121.311609,77.6142337 C121.511566,77.9192999 121.829915,78.2143596 122.266664,78.4994216 C122.703413,78.7844835 123.737389,79.2970872 125.368621,80.0372481 C127.526057,81.0174611 129.004668,82.0001599 129.804498,82.9853739 C130.604328,83.970588 131.004237,85.1783323 131.004237,86.6086431 Z M154.099213,92.6999363 L149.221326,92.6999363 L149.221326,83.2329265 L140.08121,83.2329265 L140.08121,92.6999363 L135.187537,92.6999363 L135.187537,70.7652797 L140.08121,70.7652797 L140.08121,79.3621047 L149.221326,79.3621047 L149.221326,70.7652797 L154.099213,70.7652797 L154.099213,92.6999363 Z" id="label" fill="#001326"></path>
    </g>
</svg>