<?xml version="1.0" encoding="UTF-8"?>
<svg width="60px" height="40px" viewBox="0 0 60 40" version="1.1" xmlns="http://www.w3.org/2000/svg" xmlns:xlink="http://www.w3.org/1999/xlink">
    <!-- Generator: Sketch 51.3 (57544) - http://www.bohemiancoding.com/sketch -->
    <title>ico__PGR-E--LG__None--light</title>
    <desc>Created with Sketch.</desc>
    <defs></defs>
    <g id="ico__PGR-E--LG__None--light" stroke="none" stroke-width="1" fill="none" fill-rule="evenodd">
        <path d="M54,26 L44.5162719,26 C44.5162719,17.9829452 38.0171172,11.4837652 30.0000937,11.4837652 C21.9830702,11.4837652 15.4275038,17.9829452 15.4275038,26 L6,26 C6,12.7450686 16.7452141,2 30.0000937,2 C43.2547859,2 54,12.7450686 54,26 Z" id="arc" fill="#949494"></path>
        <path d="M25.7795648,26 L21,26 L21,18.5 L25.7795648,18.5 L25.7795648,19.8030096 L22.7596973,19.8030096 L22.7596973,21.4497264 L25.5695364,21.4497264 L25.5695364,22.752736 L22.7596973,22.752736 L22.7596973,24.6867305 L25.7795648,24.6867305 L25.7795648,26 Z M30.7123936,26 L28.9526963,26 L28.9526963,19.8235294 L26.6991485,19.8235294 L26.6991485,18.5 L32.9659413,18.5 L32.9659413,19.8235294 L30.7123936,19.8235294 L30.7123936,26 Z M35.974456,26 L34.243141,26 L34.243141,18.5 L39,18.5 L39,19.8030096 L35.974456,19.8030096 L35.974456,21.7370041 L38.7899716,21.7370041 L38.7899716,23.0348837 L35.974456,23.0348837 L35.974456,26 Z" id="ETF" fill="#949494"></path>
        <path d="M11.0938023,36.9069767 L9.24263952,36.9069767 L6.25446816,31.7627907 L6.21218272,31.7627907 C6.27169586,32.6713224 6.30145199,33.3193779 6.30145199,33.7069767 L6.30145199,36.9069767 L5,36.9069767 L5,30.1069767 L6.83706761,30.1069767 L9.82054058,35.2 L9.85342926,35.2 C9.8064452,34.3162747 9.78295352,33.6914747 9.78295352,33.3255814 L9.78295352,30.1069767 L11.0938023,30.1069767 L11.0938023,36.9069767 Z M18.7809201,33.4976744 C18.7809201,34.6232614 18.4990199,35.4883691 17.9352112,36.0930233 C17.3714025,36.6976774 16.5632887,37 15.5108457,37 C14.4584028,37 13.650289,36.6976774 13.0864803,36.0930233 C12.5226716,35.4883691 12.2407714,34.6201607 12.2407714,33.4883721 C12.2407714,32.3565835 12.5234546,31.492251 13.0888295,30.8953488 C13.6542044,30.2984466 14.4646673,30 15.5202425,30 C16.5758178,30 17.3831484,30.3007722 17.9422588,30.9023256 C18.5013691,31.503879 18.7809201,32.3689866 18.7809201,33.4976744 Z M27.4553506,36.6436675 L29.7862236,30.0790698 L31.5669106,30.0790698 L34.0006728,36.9069767 L32.431413,36.9069767 L31.9333845,35.2883721 L29.4291465,35.2883721 L28.931118,36.9069767 L27.6384989,36.9069767 L26.0222553,36.9069767 L24.3825198,34.2976744 L23.6072866,34.2976744 L23.6072866,36.9069767 L22.150788,36.9069767 L22.150788,30.1069767 L24.152299,30.1069767 C25.0857157,30.1069767 25.776371,30.2751921 26.2242858,30.6116279 C26.6722005,30.9480637 26.8961545,31.4589113 26.8961545,32.144186 C26.8961545,32.544188 26.7849605,32.8999984 26.5625693,33.2116279 C26.3401781,33.5232574 26.0253896,33.767441 25.6181944,33.944186 C26.4823439,35.2221984 27.0947254,36.1220197 27.4553506,36.6436675 Z M13.7677458,33.4976744 C13.7677458,32.7379807 13.9149603,32.1651182 14.2093938,31.7790698 C14.5038272,31.3930213 14.9407724,31.2 15.5202425,31.2 C16.6760504,31.2 17.2539457,31.9658838 17.2539457,33.4976744 C17.2539457,35.0263642 16.6729182,35.7906977 15.5108457,35.7906977 C14.9313757,35.7906977 14.4959966,35.5984515 14.2046954,35.2139535 C13.9133942,34.8294554 13.7677458,34.2573681 13.7677458,33.4976744 Z M23.6072866,33.1255814 L24.0771249,33.1255814 C24.5375687,33.1255814 24.877415,33.0496132 25.0966739,32.8976744 C25.3159329,32.7457357 25.4255607,32.5069784 25.4255607,32.1813953 C25.4255607,31.8589131 25.3135837,31.629458 25.0896263,31.4930233 C24.865669,31.3565885 24.5187752,31.2883721 24.0489346,31.2883721 L23.6072866,31.2883721 L23.6072866,33.1255814 Z M31.5857041,34.0790698 C31.1252603,32.6123958 30.8660688,31.7829467 30.8081218,31.5906977 C30.7501748,31.3984487 30.7086728,31.2465122 30.6836147,31.1348837 C30.5802497,31.5317849 30.2842546,32.5131705 29.7956204,34.0790698 L31.5857041,34.0790698 Z M36.5665535,36.9069767 L35.1100549,36.9069767 L35.1100549,31.3069767 L33.244797,31.3069767 L33.244797,30.1069767 L38.4318114,30.1069767 L38.4318114,31.3069767 L36.5665535,31.3069767 L36.5665535,36.9069767 Z M39.2123068,36.9069767 L39.2123068,30.1069767 L40.6688054,30.1069767 L40.6688054,36.9069767 L39.2123068,36.9069767 Z M48.2149717,36.9069767 L46.3638089,36.9069767 L43.3756376,31.7627907 L43.3333521,31.7627907 C43.3928653,32.6713224 43.4226214,33.3193779 43.4226214,33.7069767 L43.4226214,36.9069767 L42.1211694,36.9069767 L42.1211694,30.1069767 L43.958237,30.1069767 L46.94171,35.2 L46.9745987,35.2 C46.9276146,34.3162747 46.9041229,33.6914747 46.9041229,33.3255814 L46.9041229,30.1069767 L48.2149717,30.1069767 L48.2149717,36.9069767 Z M52.2749381,33.0883721 L55,33.0883721 L55,36.6139535 C54.5583498,36.7565899 54.1425471,36.8565889 53.7525794,36.9139535 C53.3626117,36.9713181 52.9640362,37 52.556841,37 C51.5200594,37 50.7283899,36.6984526 50.1818086,36.0953488 C49.6352274,35.492245 49.3619408,34.6263622 49.3619408,33.4976744 C49.3619408,32.3999945 49.6790785,31.5441891 50.3133633,30.9302326 C50.9476482,30.316276 51.82702,30.0093023 52.9515052,30.0093023 C53.6562661,30.0093023 54.3359586,30.1488358 54.9906032,30.427907 L54.5066698,31.5813953 C54.0055065,31.3333321 53.4839912,31.2093023 52.9421084,31.2093023 C52.312522,31.2093023 51.808234,31.4186026 51.4292292,31.8372093 C51.0502244,32.255816 50.8607249,32.8186011 50.8607249,33.5255814 C50.8607249,34.2635696 51.0134208,34.8271298 51.3188172,35.2162791 C51.6242136,35.6054283 52.0682063,35.8 52.6508087,35.8 C52.9546389,35.8 53.263163,35.7689926 53.5763901,35.7069767 L53.5763901,34.2883721 L52.2749381,34.2883721 L52.2749381,33.0883721 Z" id="label" fill="#4A4A4A"></path>
    </g>
</svg>