<?xml version="1.0" encoding="UTF-8"?>
<svg width="180px" height="96px" viewBox="0 0 180 96" version="1.1" xmlns="http://www.w3.org/2000/svg" xmlns:xlink="http://www.w3.org/1999/xlink">
    <!-- Generator: Sketch 55.2 (78181) - https://sketchapp.com -->
    <title>ico__PGR-S--Max__None</title>
    <desc>Created with Sketch.</desc>
    <defs>
        <linearGradient x1="50%" y1="0%" x2="50%" y2="80.0088206%" id="linearGradient-1">
            <stop stop-color="#A9A9A9" offset="0%"></stop>
            <stop stop-color="#666666" offset="100%"></stop>
        </linearGradient>
    </defs>
    <g id="ico__PGR-S--Max__None" stroke="none" stroke-width="1" fill="none" fill-rule="evenodd">
        <path d="M42.4782578,90.7607973 L37.7763044,90.7607973 L30.1863491,77.5328904 L30.0789441,77.5328904 C30.2301075,79.8691147 30.3056881,81.5355432 30.3056881,82.5322259 L30.3056881,90.7607973 L27,90.7607973 L27,73.2750831 L31.6661517,73.2750831 L39.2441731,86.3714286 L39.3277103,86.3714286 C39.2083708,84.098992 39.1487019,82.4923635 39.1487019,81.551495 L39.1487019,73.2750831 L42.4782578,73.2750831 L42.4782578,90.7607973 Z M62.003537,81.9940199 C62.003537,84.8883866 61.2875106,87.112949 59.8554364,88.6677741 C58.4233622,90.2225991 56.3707534,91 53.6975482,91 C51.0243431,91 48.9717342,90.2225991 47.53966,88.6677741 C46.1075858,87.112949 45.3915595,84.8804132 45.3915595,81.9700997 C45.3915595,79.0597861 46.1095748,76.837217 47.5456269,75.3023256 C48.9816791,73.7674342 51.0402549,73 53.721416,73 C56.4025771,73 58.453197,73.7734142 59.8733373,75.3202658 C61.2934775,76.8671174 62.003537,79.0916798 62.003537,81.9940199 Z M84.0365905,90.0837165 L89.9570079,73.2033223 L94.4799529,73.2033223 L100.661709,90.7607973 L96.6757891,90.7607973 L95.4107965,86.5986711 L89.0500321,86.5986711 L87.7850396,90.7607973 L84.1504535,90.7607973 L80.3965285,90.7607973 L76.2316002,84.0511628 L74.262508,84.0511628 L74.262508,90.7607973 L70.5630015,90.7607973 L70.5630015,73.2750831 L75.6468395,73.2750831 C78.0177179,73.2750831 79.7719824,73.7076369 80.9096858,74.5727575 C82.0473892,75.4378781 82.6162324,76.7514862 82.6162324,78.5136213 C82.6162324,79.5421978 82.3337997,80.4571389 81.768926,81.2584718 C81.2040523,82.0598047 80.4044896,82.6877054 79.3702138,83.1421927 C81.5651536,86.4285101 83.1206025,88.7423365 84.0365905,90.0837165 Z M49.2700743,81.9940199 C49.2700743,80.0405218 49.6439992,78.5674468 50.3918602,77.5747508 C51.1397211,76.5820548 52.249562,76.0857143 53.721416,76.0857143 C56.6571681,76.0857143 58.1250221,78.0551298 58.1250221,81.9940199 C58.1250221,85.9249366 56.6492122,87.8903654 53.6975482,87.8903654 C52.2256942,87.8903654 51.1198313,87.3960182 50.3799263,86.407309 C49.6400213,85.4185997 49.2700743,83.9475181 49.2700743,81.9940199 Z M74.262508,81.0372093 L75.4558972,81.0372093 C76.6254245,81.0372093 77.488634,80.8418624 78.0455518,80.4511628 C78.6024695,80.0604632 78.8809242,79.4465158 78.8809242,78.6093023 C78.8809242,77.7800623 78.5965026,77.190035 78.0276509,76.8392027 C77.4587992,76.4883703 76.577689,76.3129568 75.3842939,76.3129568 L74.262508,76.3129568 L74.262508,81.0372093 Z M94.5276885,83.4890365 C93.3581613,79.7175891 92.6998148,77.5847201 92.5526294,77.0903654 C92.405444,76.5960108 92.300029,76.205317 92.2363813,75.9182724 C91.9738343,76.9388755 91.2220067,79.4624383 89.9808757,83.4890365 L94.5276885,83.4890365 Z M107.179046,90.7607973 L103.479539,90.7607973 L103.479539,76.3607973 L98.7417844,76.3607973 L98.7417844,73.2750831 L111.916801,73.2750831 L111.916801,76.3607973 L107.179046,76.3607973 L107.179046,90.7607973 Z M113.899259,90.7607973 L113.899259,73.2750831 L117.598766,73.2750831 L117.598766,90.7607973 L113.899259,90.7607973 Z M136.766028,90.7607973 L132.064075,90.7607973 L124.474119,77.5328904 L124.366714,77.5328904 C124.517878,79.8691147 124.593458,81.5355432 124.593458,82.5322259 L124.593458,90.7607973 L121.28777,90.7607973 L121.28777,73.2750831 L125.953922,73.2750831 L133.531943,86.3714286 L133.615481,86.3714286 C133.496141,84.098992 133.436472,82.4923635 133.436472,81.551495 L133.436472,73.2750831 L136.766028,73.2750831 L136.766028,90.7607973 Z M147.078343,80.9415282 L154,80.9415282 L154,90.007309 C152.878209,90.3740882 151.82207,90.6312285 150.831552,90.7787375 C149.841034,90.9262466 148.828652,91 147.794376,91 C145.160951,91 143.15011,90.2245925 141.761794,88.6737542 C140.373478,87.1229158 139.67933,84.89636 139.67933,81.9940199 C139.67933,79.1714145 140.484859,76.970772 142.095943,75.3920266 C143.707026,73.8132811 145.940631,73.0239203 148.796823,73.0239203 C150.586916,73.0239203 152.313335,73.3827207 153.976132,74.1003322 L152.746941,77.0664452 C151.473987,76.4285682 150.149338,76.1096346 148.772955,76.1096346 C147.173806,76.1096346 145.892914,76.6478351 144.930242,77.7242525 C143.96757,78.8006698 143.486241,80.2478314 143.486241,82.0657807 C143.486241,83.9634646 143.874089,85.4126196 144.649796,86.413289 C145.425503,87.4139585 146.553244,87.9142857 148.033054,87.9142857 C148.804783,87.9142857 149.588434,87.8345523 150.384031,87.6750831 L150.384031,84.0272425 L147.078343,84.0272425 L147.078343,80.9415282 Z" id="label" fill="#4A4A4A"></path>
        <g id="GAUGE" transform="translate(27.000000, 2.000000)">
            <path d="M101.229773,62 C100.377081,41.857206 83.8111064,25.789186 63.5002543,25.789186 C43.1598508,25.789186 26.477939,41.8854341 25.6179972,62 L30.8761303,62 C32.3494602,44.4989396 45.6059796,30.8034473 63.499778,30.8034473 C81.3935764,30.8034473 94.7687245,44.4989396 96.2557742,62 L101.229773,62 Z" id="Combined-Shape" fill="#001E3B"></path>
            <path d="M104.48893,62 C103.634072,40.0544525 85.6097989,22.5260281 63.5002543,22.5260281 C41.3647362,22.5260281 23.2203767,40.0793141 22.3587848,62 L0.0204677395,62 C0.884182094,27.6111222 28.9743124,0 63.5002543,0 C98.0257698,0 126.115818,27.6111948 126.979532,62 L104.48893,62 Z" id="Combined-Shape" fill="url(#linearGradient-1)"></path>
        </g>
    </g>
</svg>