<?xml version="1.0" encoding="UTF-8"?>
<svg width="180px" height="96px" viewBox="0 0 180 96" version="1.1" xmlns="http://www.w3.org/2000/svg" xmlns:xlink="http://www.w3.org/1999/xlink">
    <!-- Generator: Sketch 54.1 (76490) - https://sketchapp.com -->
    <title>ico__PGR-S--Max__Bullish</title>
    <desc>Created with Sketch.</desc>
    <defs>
        <linearGradient x1="100%" y1="99.9999642%" x2="0%" y2="99.9999642%" id="linearGradient-1">
            <stop stop-color="#459800" offset="0%"></stop>
            <stop stop-color="#5ED000" offset="26.1753974%"></stop>
            <stop stop-color="#FFBE00" offset="50.5422477%"></stop>
            <stop stop-color="#EE5700" offset="73.4575572%"></stop>
            <stop stop-color="#E00000" offset="100%"></stop>
        </linearGradient>
    </defs>
    <g id="ico__PGR-S--Max__Bullish" stroke="none" stroke-width="1" fill="none" fill-rule="evenodd">
        <g id="GAUGE" transform="translate(25.000000, 2.000000)">
            <path d="M102.123177,16.0036023 L93.2657903,38.2048035 L93.9127872,38.9590642 C99.4332674,45.3947701 102.664187,53.4471418 103.030971,62.0119149 L97.871483,62.0119149 C96.3747738,44.412756 82.9127452,30.6404966 64.9027144,30.6404966 C46.8926837,30.6404966 33.5500542,44.412756 32.067154,62.0119149 L26.928084,62.0119149 C27.786315,41.7562148 44.4598971,25.5981289 64.9026819,25.5981289 C70.2549314,25.5981289 75.4585451,26.7054049 80.2616215,28.8210819 L81.0712085,29.1776918 L101.77506,15.7343665 C101.891408,15.8237244 102.00745,15.9134725 102.123177,16.0036023 Z" id="Combined-Shape" fill="#001E3B"></path>
            <path d="M64.9793286,0 C78.5579458,0 91.4883302,4.20739101 102.261997,11.883302 L80.8751998,25.6638372 C75.8765045,23.6052888 70.4983017,22.530357 64.9793286,22.530357 C42.6753242,22.530357 24.4925223,40.06215 23.6301462,62.0119149 L0.941732283,62.0119149 C1.81304264,27.616501 30.1501513,0 64.9793286,0 Z M97.1913331,37.7193879 L106.316434,15.0221334 C120.190385,26.6714287 128.549247,43.6310229 129.017323,62.0119149 L106.48257,62.0119149 C106.126117,53.0392582 102.837535,44.5761304 97.1913331,37.7193879 Z" id="Combined-Shape" fill="url(#linearGradient-1)" fill-rule="nonzero"></path>
            <path d="M1.02362205,68.7652797 L8.20626996,68.7652797 C11.4792585,68.7652797 13.8550336,69.2078692 15.3336667,70.0930615 C16.8122998,70.9782539 17.5516053,72.3860387 17.5516053,74.3164581 C17.5516053,75.6267429 17.2279947,76.7019604 16.5807638,77.5421429 C15.933533,78.3823255 15.0732024,78.8874277 13.9997464,79.0574646 L13.9997464,79.2074965 C15.4625934,79.5175639 16.5176164,80.0976812 17.1648473,80.947866 C17.8120781,81.7980507 18.1356887,82.9282794 18.1356887,84.3385858 C18.1356887,86.3390205 17.3753354,87.8993361 15.854606,89.0195796 C14.3338766,90.139823 12.2685571,90.6999363 9.65858558,90.6999363 L1.02362205,90.6999363 L1.02362205,68.7652797 Z M5.91729425,77.4521238 L8.75878134,77.4521238 C10.0848153,77.4521238 11.0451231,77.2570844 11.6397335,76.8669996 C12.234344,76.4769149 12.5316447,75.8317843 12.5316447,74.9315887 C12.5316447,74.0914062 12.2080342,73.4887843 11.5608033,73.1237049 C10.9135725,72.7586256 9.89012115,72.5760887 8.49041867,72.5760887 L5.91729425,72.5760887 L5.91729425,77.4521238 Z M5.91729425,81.1429074 L5.91729425,86.8591209 L9.1060742,86.8591209 C10.4531563,86.8591209 11.4476668,86.6140713 12.0896356,86.1239648 C12.7316045,85.6338583 13.052584,84.8837066 13.052584,83.8734871 C13.052584,82.0530915 11.6844743,81.1429074 8.94821381,81.1429074 L5.91729425,81.1429074 Z M40.5199521,68.7652797 L40.5199521,82.9582928 C40.5199521,84.5786449 40.13846,85.9989322 39.3754643,87.2191973 C38.6124686,88.4394625 37.5100879,89.3746517 36.068289,90.024793 C34.6264902,90.6749342 32.921615,91 30.9536123,91 C27.9858221,91 25.6810834,90.2773538 24.0393271,88.8320398 C22.3975708,87.3867257 21.5767049,85.4088256 21.5767049,82.89828 L21.5767049,68.7652797 L26.4545911,68.7652797 L26.4545911,82.1931303 C26.4545911,83.8834976 26.8124044,85.1237485 27.5280418,85.9139202 C28.2436791,86.7040919 29.4276202,87.0991719 31.0799006,87.0991719 C32.6795606,87.0991719 33.8398229,86.7015914 34.5607223,85.9064187 C35.2816217,85.1112459 35.642066,83.8634934 35.642066,82.163124 L35.642066,68.7652797 L40.5199521,68.7652797 Z M45.1490553,90.6999363 L45.1490553,68.7652797 L50.0427275,68.7652797 L50.0427275,86.8591209 L59.4038488,86.8591209 L59.4038488,90.6999363 L45.1490553,90.6999363 Z M63.4135028,90.6999363 L63.4135028,68.7652797 L68.307175,68.7652797 L68.307175,86.8591209 L77.6682964,86.8591209 L77.6682964,90.6999363 L63.4135028,90.6999363 Z M81.6779504,90.6999363 L81.6779504,68.7652797 L86.5716226,68.7652797 L86.5716226,90.6999363 L81.6779504,90.6999363 Z M106.004237,84.6086431 C106.004237,86.5890735 105.254408,88.1493891 103.754726,89.2896369 C102.255045,90.4298847 100.168678,91 97.4955618,91 C95.0329273,91 92.8544757,90.559911 90.9601415,89.6797197 L90.9601415,85.3588024 C92.5177052,86.0189458 93.8358263,86.4840399 94.9145444,86.7540986 C95.9932624,87.0241573 96.97988,87.1591846 97.8744267,87.1591846 C98.9478828,87.1591846 99.7713796,86.9641452 100.344942,86.5740604 C100.918504,86.1839756 101.205281,85.6038583 101.205281,84.8336909 C101.205281,84.4035975 101.078994,84.0210201 100.826416,83.6859473 C100.573838,83.3508744 100.20287,83.0283092 99.7135003,82.7182418 C99.2241307,82.4081744 98.2269891,81.9130743 96.7220459,81.2329265 C95.3118193,80.6027896 94.2541652,79.9976671 93.549052,79.4175411 C92.8439387,78.837415 92.2809089,78.1622785 91.8599457,77.3921111 C91.4389826,76.6219437 91.2285042,75.7217616 91.2285042,74.6915378 C91.2285042,72.7511161 91.920452,71.2258076 93.3043683,70.1155663 C94.6882847,69.0053251 96.6010074,68.4502128 99.0425937,68.4502128 C100.242339,68.4502128 101.386815,68.5852401 102.476057,68.8552988 C103.565299,69.1253574 104.704514,69.5054343 105.893735,69.9955408 L104.315131,73.6113084 C103.083814,73.1312041 102.065624,72.7961363 101.260532,72.606095 C100.45544,72.4160537 99.6635151,72.3210345 98.8847333,72.3210345 C97.9586143,72.3210345 97.2482496,72.526076 96.7536179,72.9361651 C96.2589862,73.3462542 96.0116741,73.8813625 96.0116741,74.5415059 C96.0116741,74.951595 96.1116513,75.3091674 96.3116088,75.6142337 C96.5115663,75.9192999 96.8299149,76.2143596 97.2666642,76.4994216 C97.7034135,76.7844835 98.7373887,77.2970872 100.368621,78.0372481 C102.526057,79.0174611 104.004668,80.0001599 104.804498,80.9853739 C105.604328,81.970588 106.004237,83.1783323 106.004237,84.6086431 Z M129.099213,90.6999363 L124.221326,90.6999363 L124.221326,81.2329265 L115.08121,81.2329265 L115.08121,90.6999363 L110.187537,90.6999363 L110.187537,68.7652797 L115.08121,68.7652797 L115.08121,77.3621047 L124.221326,77.3621047 L124.221326,68.7652797 L129.099213,68.7652797 L129.099213,90.6999363 Z" id="label" fill="#001326"></path>
        </g>
    </g>
</svg>