<?xml version="1.0" encoding="UTF-8"?>
<svg width="512px" height="512px" viewBox="0 0 512 512" version="1.1" xmlns="http://www.w3.org/2000/svg" xmlns:xlink="http://www.w3.org/1999/xlink">
    <!-- Generator: Sketch 54.1 (76490) - https://sketchapp.com -->
    <title>TRAY__Icon--Insight</title>
    <desc>Created with Sketch.</desc>
    <g id="TRAY__Icon--Insight" stroke="none" stroke-width="1" fill="none" fill-rule="evenodd">
        <path d="M440,388.000011 C440,387.995383 440,389.328713 440,391.999999 C440,402.666666 434.666667,407.999999 424,407.999999 L424,168 L448.64,168 C465.95965,168 480,182.04035 480,199.36 L480,384.48 L480,419.52 C480,452.922182 452.922182,480 419.52,480 L132.48,480 C99.0778184,480 72,452.922182 72,419.52 L72,384.48 L72,49.9200001 C72,40.0230573 80.0230573,32 89.9200001,32 L390.08,32 C399.976943,32 408,40.0230573 408,49.9200001 L408,168 L408,416 L408,424.5 C408,437.754834 418.745166,448.5 432,448.5 C445.254834,448.5 456,437.754834 456,424.5 L456,422 L456,208 C456,199.163444 448.836556,192 440,192 L440,388.000011 Z M104,72 C95.163444,72 88,79.163444 88,88 L88,184 L368,184 L368,88 C368,79.163444 360.836556,72 352,72 L104,72 Z M88,216 L88,408 C88,425.673112 102.326888,440 120,440 L216,440 L216,216 L88,216 Z M248,216 L248,288 L352,288 C360.836556,288 368,280.836556 368,272 L368,216 L248,216 Z M152,416 C125.490332,416 104,394.509668 104,368 C104,341.490332 125.490332,320 152,320 C178.509668,320 200,341.490332 200,368 C200,394.509668 178.509668,416 152,416 Z M152,395 C166.911688,395 179,382.911688 179,368 C179,353.088312 166.911688,341 152,341 C137.088312,341 125,353.088312 125,368 C125,382.911688 137.088312,395 152,395 Z M104,288 C104,261.490332 125.490332,240 152,240 C178.509668,240 200,261.490332 200,288 L179,288 C179,273.088312 166.911688,261 152,261 C137.088312,261 125,273.088312 125,288 L104,288 Z M248,320 L248,336 L368,336 L368,320 L248,320 Z M248,368 L248,384 L368,384 L368,368 L248,368 Z M248,416 L248,432 L368,432 L368,416 L248,416 Z M352,142.047822 L352,168 L104,168 L104,159.691111 L163.556364,115.471805 C172.094277,109.13259 183.771674,109.115588 192.328009,115.429915 L206.134969,125.61905 C206.488246,125.879758 206.970259,125.879534 207.323293,125.618496 L249.65798,94.3157825 C260.982482,85.9423268 276.45031,85.9574068 287.758463,94.3529276 L309.760507,110.687922 L352,142.047822 Z" id="Combined-Shape" fill="#B4B8BE"></path>
    </g>
</svg>