<?xml version="1.0" encoding="UTF-8"?>
<svg width="512px" height="512px" viewBox="0 0 512 512" version="1.1" xmlns="http://www.w3.org/2000/svg" xmlns:xlink="http://www.w3.org/1999/xlink">
    <!-- Generator: Sketch 54.1 (76490) - https://sketchapp.com -->
    <title>TRAY__Icon--Home</title>
    <desc>Created with Sketch.</desc>
    <g id="TRAY__Icon--Home" stroke="none" stroke-width="1" fill="none" fill-rule="evenodd">
        <path d="M120,360 L168,360 L168,352 C168,347.581722 171.581722,344 176,344 L176,192 C171.581722,192 168,188.418278 168,184 L168,176 L120,176 L120,184 C120,188.418278 116.418278,192 112,192 L112,344 C116.418278,344 120,347.581722 120,352 L120,360 Z M56,360 L56,352 C56,347.581722 59.581722,344 64,344 L64,192 C59.581722,192 56,188.418278 56,184 L56,176 L40,176 C35.581722,176 32,172.418278 32,168 L32,152 L480,152 L480,168 C480,172.418278 476.418278,176 472,176 L456,176 L456,184 C456,188.418278 452.418278,192 448,192 L448,344 C452.418278,344 456,347.581722 456,352 L456,360 L472,360 C476.418278,360 480,363.581722 480,368 L480,460 C480,471.045695 471.045695,480 460,480 L52,480 C40.954305,480 32,471.045695 32,460 L32,368 C32,363.581722 35.581722,360 40,360 L56,360 Z M392,360 L392,352 C392,347.581722 395.581722,344 400,344 L400,192 C395.581722,192 392,188.418278 392,184 L392,176 L344,176 L344,184 C344,188.418278 340.418278,192 336,192 L336,344 C340.418278,344 344,347.581722 344,352 L344,360 L392,360 Z M280,360 L280,352 C280,347.581722 283.581722,344 288,344 L288,192 C283.581722,192 280,188.418278 280,184 L280,176 L232,176 L232,184 C232,188.418278 228.418278,192 224,192 L224,344 C228.418278,344 232,347.581722 232,352 L232,360 L280,360 Z M400,448 L448,448 C452.418278,448 456,444.418278 456,440 L456,416 C456,402.745166 445.254834,392 432,392 L416,392 C402.745166,392 392,402.745166 392,416 L392,440 C392,444.418278 395.581722,448 400,448 Z M64,448 L112,448 C116.418278,448 120,444.418278 120,440 L120,416 C120,402.745166 109.254834,392 96,392 L80,392 C66.745166,392 56,402.745166 56,416 L56,440 C56,444.418278 59.581722,448 64,448 Z M176,448 L224,448 C228.418278,448 232,444.418278 232,440 L232,416 C232,402.745166 221.254834,392 208,392 L192,392 C178.745166,392 168,402.745166 168,416 L168,440 C168,444.418278 171.581722,448 176,448 Z M288,448 L336,448 C340.418278,448 344,444.418278 344,440 L344,416 C344,402.745166 333.254834,392 320,392 L304,392 C290.745166,392 280,402.745166 280,416 L280,440 C280,444.418278 283.581722,448 288,448 Z M292.699655,32 L479.404002,116.865612 C479.353037,117.06951 479.298943,117.272169 479.241774,117.473534 L482.174744,118.806702 C486.699777,120.863535 488.700649,126.199193 486.643816,130.724226 C486.27243,131.541275 485.788319,132.283948 485.214792,132.937235 C483.560719,134.564828 481.306533,135.523119 478.901034,135.523119 L34,135.523119 C29.0294373,135.523119 25,131.493682 25,126.523119 C25,124.294474 25.8225628,122.19571 27.237868,120.583739 C27.9767449,119.856662 28.8477745,119.251012 29.8252563,118.806702 L32.7582261,117.473534 C32.7354141,117.393184 32.7130918,117.312629 32.6912626,117.231871 L220.201379,32 L220.8,32 L249.792956,18.8213837 C253.736831,17.0287133 258.263169,17.0287133 262.207044,18.8213837 L291.2,32 L292.699655,32 Z M331.365402,32 L460,32 C471.045695,32 480,40.954305 480,52 L480,99.5611808 L331.365402,32 Z M32,99.9707419 L32,52 C32,40.954305 40.954305,32 52,32 L181.535632,32 L32,99.9707419 Z" id="Combined-Shape" fill="#B4B8BE"></path>
    </g>
</svg>